^C:\USERS\ADMIN\SOURCE\REPOS\PROJECT4\SOURCE.CPP
C:\USERS\ADMIN\SOURCE\REPOS\PROJECT4\DEBUG\VC142.PDB
C:\USERS\ADMIN\SOURCE\REPOS\PROJECT4\DEBUG\VC142.IDB
C:\USERS\ADMIN\SOURCE\REPOS\PROJECT4\DEBUG\SOURCE.OBJ
